{
    "ChallengeName": "Daily Challenge",
    "ChallengeParameters": [
        {
            "TrackID": 1,
            "CarID": 1
        }
    ],
    "WeatherParameters": [
        {
            "Day": false,
            "Night": true,
            "Rain": false,
            "Season": 2
        }
    ]
}